Get Data into R
…
penguin_csv_url <- 'https://raw.githubusercontent.com/allisonhorst/palmerpenguins/main/inst/extdata/penguins.csv'
 
read_csv(penguin_csv_url)

Rows: 344 Columns: 8
── Column specification ────────────────────────────────────────────────────────
Delimiter: ","
chr (3): species, island, sex
dbl (5): bill_length_mm, bill_depth_mm, flipper_length_mm, body_mass_g, year

ℹ Use `spec()` to retrieve the full column specification for this data.
ℹ Specify the column types or set `show_col_types = FALSE` to quiet this message.

# A tibble: 344 × 8
   species island    bill_length_mm bill_depth_mm flipper_…¹ body_…² sex    year
   <chr>   <chr>              <dbl>         <dbl>      <dbl>   <dbl> <chr> <dbl>
 1 Adelie  Torgersen           39.1          18.7        181    3750 male   2007
 2 Adelie  Torgersen           39.5          17.4        186    3800 fema…  2007
 3 Adelie  Torgersen           40.3          18          195    3250 fema…  2007
 4 Adelie  Torgersen           NA            NA           NA      NA <NA>   2007
 5 Adelie  Torgersen           36.7          19.3        193    3450 fema…  2007
 6 Adelie  Torgersen           39.3          20.6        190    3650 male   2007
 7 Adelie  Torgersen           38.9          17.8        181    3625 fema…  2007
 8 Adelie  Torgersen           39.2          19.6        195    4675 male   2007
 9 Adelie  Torgersen           34.1          18.1        193    3475 <NA>   2007
10 Adelie  Torgersen           42            20.2        190    4250 <NA>   2007
# … with 334 more rows, and abbreviated variable names ¹​flipper_length_mm,
#   ²​body_mass_g
# ℹ Use `print(n = ...)` to see more rows
…
Warning: One or more parsing issues, see `problems()` for details

Rows: 177 Columns: 3
── Column specification ────────────────────────────────────────────────────────
Delimiter: " "
chr (3): /*, DATA, DESCRIPTION:

ℹ Use `spec()` to retrieve the full column specification for this data.
ℹ Specify the column types or set `show_col_types = FALSE` to quiet this message.

If we call problems() readr tells us what went wrong.

pangaea_data

# A tibble: 177 × 3
   `/*`                   DATA           `DESCRIPTION:`                         
   <chr>                  <chr>          <chr>                                  
 1 "Citation:\tWu,"       "Jiawang;"     "Liu, Zhifei; Michard, Annie; Tachikaw…
 2 "\tIn:"                "Wu,"          "J et al. (2022): Effect of barite-bou…
 3 "Keyword(s):\tBarite;" "Barium"       "(Ba); marine sediments; Mediterranean…
 4 "Related"              "to:\tWu,"     "Jiawang; Liu, Zhifei; Michard, Annie;…
 5 "Funding:\tChina"      "Postdoctoral" "Science Foundation (URI: http://res.c…
 6 "\tChina"              "Postdoctoral" "Science Foundation (URI: http://res.c…
 7 "\tEuropean"           "Commission"   "(EC), grant/award no. MAS2-CT93-0051:…
 8 "\tEuropean"           "Commission"   "(EC), grant/award no. MAS3 CT97-0137:…
 9 "\tEuropean"           "Commission"   "(EC), grant/award no. MAST1-90022C: E…
10 "\tNational"           "Natural"      "Science Foundation of China (NSFC) (U…
# … with 167 more rows
# ℹ Use `print(n = ...)` to see more rows
…
