Explore your Data with Models
…
# A tibble: 2 × 5
  term                      estimate std.error statistic   p.value
  <chr>                        <dbl>     <dbl>     <dbl>     <dbl>
1 (Intercept)                  -20.4     4.00      -5.10 3.89e-  7
2 primary_branch_number_pbn     15.6     0.410     38.0  7.52e-205

Augment the results of the linear regression

fit_augmented <-
  fit %>%
  augment()

fit_augmented

# A tibble: 1,140 × 8
   spikelet_number_sp_n primary_…¹ .fitted .resid    .hat .sigma .cooksd .std.…²
                  <dbl>      <dbl>   <dbl>  <dbl>   <dbl>  <dbl>   <dbl>   <dbl>
 1                   38          5    57.5 -19.5  0.00199   50.1 1.52e-4 -0.391 
 2                   38          5    57.5 -19.5  0.00199   50.1 1.52e-4 -0.391 
 3                   30          4    41.9 -11.9  0.00260   50.1 7.44e-5 -0.239 
 4                   35          4    41.9  -6.95 0.00260   50.1 2.51e-5 -0.139 
 5                   22          4    41.9 -19.9  0.00260   50.1 2.07e-4 -0.399 
 6                   28          4    41.9 -13.9  0.00260   50.1 1.01e-4 -0.279 
 7                   34          4    41.9  -7.95 0.00260   50.1 3.29e-5 -0.159 
 8                   18          3    26.4  -8.35 0.00335   50.1 4.68e-5 -0.167 
 9                   29          3    26.4   2.65 0.00335   50.1 4.71e-6  0.0530
10                   38          6    73.1 -35.1  0.00151   50.1 3.72e-4 -0.702 
# … with 1,130 more rows, and abbreviated variable names
#   ¹​primary_branch_number_pbn, ²​.std.resid
# ℹ Use `print(n = ...)` to see more rows
…
fit_multiple %>% tidy()

# A tibble: 5 × 5
  term                      estimate std.error statistic   p.value
  <chr>                        <dbl>     <dbl>     <dbl>     <dbl>
1 (Intercept)                  -1.92     3.13     -0.612 5.41e-  1
2 speciesOg                    51.3      4.06     12.6   2.40e- 34
3 speciesOr                    -5.56     3.53     -1.58  1.15e-  1
4 speciesOs                   101.       3.99     25.3   3.23e-112
5 primary_branch_number_pbn     9.00     0.434    20.7   2.63e- 81

fit_multiple %>% augment()

# A tibble: 1,140 × 9
   spikelet_n…¹ species prima…² .fitted   .resid    .hat .sigma .cooksd .std.r…³
          <dbl> <chr>     <dbl>   <dbl>    <dbl>   <dbl>  <dbl>   <dbl>    <dbl>
 1           38 Ob            5    43.1  -5.06   0.00379   36.5 1.47e-5 -0.139  
 2           38 Ob            5    43.1  -5.06   0.00379   36.5 1.47e-5 -0.139  
 3           30 Ob            4    34.1  -4.07   0.00394   36.5 9.85e-6 -0.112  
 4           35 Ob            4    34.1   0.932  0.00394   36.5 5.17e-7  0.0256 
 5           22 Ob            4    34.1 -12.1    0.00394   36.5 8.67e-5 -0.331  
 6           28 Ob            4    34.1  -6.07   0.00394   36.5 2.19e-5 -0.167  
 7           34 Ob            4    34.1  -0.0682 0.00394   36.5 2.77e-9 -0.00187
 8           18 Ob            3    25.1  -7.07   0.00437   36.5 3.31e-5 -0.194  
 9           29 Ob            3    25.1   3.93   0.00437   36.5 1.02e-5  0.108  
10           38 Ob            6    52.1 -14.1    0.00392   36.5 1.17e-4 -0.386  
# … with 1,130 more rows, and abbreviated variable names ¹​spikelet_number_sp_n,
#   ²​primary_branch_number_pbn, ³​.std.resid
# ℹ Use `print(n = ...)` to see more rows
…
