A Glimpse to Linear Models
…
ℹ Use `spec()` to retrieve the full column specification for this data.
ℹ Specify the column types or set `show_col_types = FALSE` to quiet this message.

3.1.2 Structure of the data

Let’s also check how the data look like:

rice

# A tibble: 1,140 × 18
   id    species acces…¹ origi…² type_…³ sowin…⁴ repli…⁵ plant…⁶ panic…⁷ rachi…⁸
   <chr> <chr>   <chr>   <chr>   <chr>   <chr>     <dbl>   <dbl>   <dbl>   <dbl>
 1 Ob01  Ob      B197    Africa  Wild    Cali-C…       1       1       1    8.1 
 2 Ob01  Ob      B197    Africa  Wild    Cali-C…       1       1       2    6.51
 3 Ob01  Ob      B197    Africa  Wild    Cali-C…       1       1       3    4.67
 4 Ob01  Ob      B197    Africa  Wild    Cali-C…       1       2       1    5.96
 5 Ob01  Ob      B197    Africa  Wild    Cali-C…       1       2       2    5.99
 6 Ob01  Ob      B197    Africa  Wild    Cali-C…       1       2       3    6.23
 7 Ob01  Ob      B197    Africa  Wild    Cali-C…       1       3       1    5.54
 8 Ob01  Ob      B197    Africa  Wild    Cali-C…       1       3       2    4.15
 9 Ob01  Ob      B197    Africa  Wild    Cali-C…       1       3       3    4.71
10 Ob01  Ob      B197    Africa  Wild    Cali-C…       2       1       1    6.95
# … with 1,130 more rows, 8 more variables: primary_branch_number_pbn <dbl>,
#   average_of_primary_branch_length_in_cm_pbl <dbl>,
#   average_of_internode_along_primary_branch_in_cm_pbil <dbl>,
#   secondary_branch_number_sbn <dbl>,
#   average_of_secondary_branch_length_in_cm_sbl <dbl>,
#   average_of_internode_along_secondary_branch_in_cm_sbil <dbl>,
#   tertiary_branch_number_tbn <dbl>, spikelet_number_sp_n <dbl>, and …
# ℹ Use `print(n = ...)` to see more rows, and `colnames()` to see all variable names
…
5.2.3 Augment the results of the linear regression

augment() returns a tibble with the fitted and residuals values for every observation that was used to train the model.

fit_augmented <-
  fit %>%
  augment()

fit_augmented

# A tibble: 1,140 × 8
   spikelet_number_sp_n primary_…¹ .fitted .resid    .hat .sigma .cooksd .std.…²
                  <dbl>      <dbl>   <dbl>  <dbl>   <dbl>  <dbl>   <dbl>   <dbl>
 1                   38          5    57.5 -19.5  0.00199   50.1 1.52e-4 -0.391 
 2                   38          5    57.5 -19.5  0.00199   50.1 1.52e-4 -0.391 
 3                   30          4    41.9 -11.9  0.00260   50.1 7.44e-5 -0.239 
 4                   35          4    41.9  -6.95 0.00260   50.1 2.51e-5 -0.139 
 5                   22          4    41.9 -19.9  0.00260   50.1 2.07e-4 -0.399 
 6                   28          4    41.9 -13.9  0.00260   50.1 1.01e-4 -0.279 
 7                   34          4    41.9  -7.95 0.00260   50.1 3.29e-5 -0.159 
 8                   18          3    26.4  -8.35 0.00335   50.1 4.68e-5 -0.167 
 9                   29          3    26.4   2.65 0.00335   50.1 4.71e-6  0.0530
10                   38          6    73.1 -35.1  0.00151   50.1 3.72e-4 -0.702 
# … with 1,130 more rows, and abbreviated variable names
#   ¹​primary_branch_number_pbn, ²​.std.resid
# ℹ Use `print(n = ...)` to see more rows
…
