Unsupervised Learning - Explore your Data with Clustering and PCA
…
IR and green reflectance will both be a linear function of the vegetation coverage stored in v, plus a small random noise.

reflectance <- 
  tibble(
    ir = v*2 + rnorm(size, mean = 0, sd = .02),
    green = v*1.3 + rnorm(size, mean = 0, sd = .02)
  )

So, the reflectance dataset looks like this.

reflectance

# A tibble: 100 × 2
      ir green
   <dbl> <dbl>
 1 0.775 0.492
 2 0.705 0.409
 3 1.85  1.19 
 4 1.94  1.22 
 5 0.802 0.506
 6 0.727 0.433
 7 1.70  1.10 
 8 1.09  0.676
 9 0.661 0.442
10 1.52  0.972
# … with 90 more rows
# ℹ Use `print(n = ...)` to see more rows
…
